Research practicum/Job and Joris beam characterisation foto's kopie/ALL0000/F0000CH2.CSV

Record Length,2.500000e+03,,   0.000000000000,  -0.01000,
Sample Interval,2.000000e-02,,   0.020000000000,  -0.01000,
Trigger Point,0.000000000000e+00,,   0.040000000000,  -0.01000,
,,,   0.060000000000,  -0.01000,
,,,   0.080000000000,  -0.01000,
,,,   0.100000000000,  -0.01000,
Source,CH2,,   0.120000000000,  -0.01000,
Vertical Units,V,,   0.140000000000,  -0.01000,
Vertical Scale,5.000000e-03,,   0.160000000000,  -0.01000,
Vertical Offset,-1.560000e-02,,   0.180000000000,  -0.01000,
Horizontal Units,s,,   0.200000000000,  -0.01000,
Horizontal Scale,5.000000e+00,,   0.220000000000,  -0.01000,
Pt Fmt,Y,,   0.240000000000,  -0.01000,
Yzero,0.000000e+00,,   0.260000000000,  -0.01000,
Probe Atten,1.000000e+00,,   0.280000000000,  -0.01000,
Model Number,TBS1064,,   0.300000000000,  -0.01000,
Serial Number,C011001,,   0.320000000000,  -0.01000,
Firmware Version,FV:v26.05,,   0.340000000000,  -0.01000,
,,,0.360000000000,  -0.01000,
,,,0.380000000000,  -0.01000,
,,,0.400000000000,  -0.01000,
,,,0.420000000000,  -0.01000,
,,,0.440000000000,  -0.01000,
,,,0.460000000000,  -0.01000,
,,,0.480000000000,  -0.01000,
,,,0.500000000000,  -0.01000,
,,,0.520000000000,  -0.01000,
,,,0.540000000000,  -0.01000,
,,,0.560000000000,  -0.01000,
,,,0.580000000000,  -0.01000,
,,,0.600000000000,  -0.01000,
,,,0.620000000000,  -0.01000,
,,,0.640000000000,  -0.01000,
,,,0.660000000000,  -0.01000,
,,,0.680000000000,  -0.01000,
,,,0.700000000000,  -0.01000,
,,,0.720000000000,  -0.01000,
,,,0.740000000000,  -0.01000,
,,,0.760000000000,  -0.01000,
,,,0.780000000000,  -0.01000,
,,,0.800000000000,  -0.01000,
,,,0.820000000000,  -0.01000,
,,,0.840000000000,  -0.01000,
,,,0.860000000000,  -0.01000,
,,,0.880000000000,  -0.01000,
,,,0.900000000000,  -0.01000,
,,,0.920000000000,  -0.01000,
,,,0.940000000000,  -0.01000,
,,,0.960000000000,  -0.01000,
,,,0.980000000000,  -0.01000,
,,,1.000000000000,  -0.01000,
,,,1.020000000000,  -0.01000,
,,,1.040000000000,  -0.01000,
,,,1.060000000000,  -0.01000,
,,,1.080000000000,  -0.01000,
,,,1.100000000000,  -0.01000,
,,,1.120000000000,  -0.01000,
,,,1.140000000000,  -0.01000,
,,,1.160000000000,  -0.01000,
,,,1.180000000000,  -0.01000,
,,,1.200000000000,  -0.01000,
,,,1.220000000000,  -0.01000,
,,,1.240000000000,  -0.01000,
,,,1.260000000000,  -0.01000,
,,,1.280000000000,  -0.01000,
,,,1.300000000000,  -0.01000,
,,,1.320000000000,  -0.01000,
,,,1.340000000000,  -0.01000,
,,,1.360000000000,  -0.01000,
,,,1.380000000000,  -0.01000,
,,,1.400000000000,  -0.01000,
,,,1.420000000000,  -0.01000,
,,,1.440000000000,  -0.01000,
,,,1.460000000000,  -0.01000,
,,,1.480000000000,  -0.01000,
,,,1.500000000000,  -0.01000,
,,,1.520000000000,  -0.01000,
,,,1.540000000000,  -0.01000,
,,,1.560000000000,  -0.01000,
,,,1.580000000000,  -0.01000,
,,,1.600000000000,  -0.01000,
,,,1.620000000000,  -0.01000,
,,,1.640000000000,  -0.01000,
,,,1.660000000000,  -0.01000,
,,,1.680000000000,  -0.01000,
,,,1.700000000000,  -0.01000,
,,,1.720000000000,  -0.01000,
,,,1.740000000000,  -0.01000,
,,,1.760000000000,  -0.01000,
,,,1.780000000000,  -0.01000,
,,,1.800000000000,  -0.01000,
,,,1.820000000000,  -0.01000,
,,,1.840000000000,  -0.01000,
,,,1.860000000000,  -0.01000,
,,,1.880000000000,  -0.01000,
,,,1.900000000000,  -0.01000,
,,,1.920000000000,  -0.01000,
,,,1.940000000000,  -0.01000,
,,,1.960000000000,  -0.01000,
,,,1.980000000000,  -0.01000,
,,,2.000000000000,  -0.01000,
,,,2.020000000000,  -0.01000,
,,,2.040000000000,  -0.01000,
,,,2.060000000000,  -0.01000,
,,,2.080000000000,  -0.01000,
,,,2.100000000000,  -0.01000,
,,,2.120000000000,  -0.01000,
,,,2.140000000000,  -0.01000,
,,,2.160000000000,  -0.01000,
,,,2.180000000000,  -0.01000,
,,,2.200000000000,  -0.01000,
,,,2.220000000000,  -0.01000,
,,,2.240000000000,  -0.01000,
,,,2.260000000000,  -0.01000,
,,,2.280000000000,  -0.01000,
,,,2.300000000000,  -0.01000,
,,,2.320000000000,  -0.01000,
,,,2.340000000000,  -0.01000,
,,,2.360000000000,  -0.01000,
,,,2.380000000000,  -0.01000,
,,,2.400000000000,  -0.01000,
,,,2.420000000000,  -0.01000,
,,,2.440000000000,  -0.01000,
,,,2.460000000000,  -0.00040,
,,,2.480000000000,  -0.00040,
,,,2.500000000000,  -0.00020,
,,,2.520000000000,  -0.00040,
,,,2.540000000000,  -0.00020,
,,,2.560000000000,  -0.00060,
,,,2.580000000000,  -0.00080,
,,,2.600000000000,  -0.00120,
,,,2.620000000000,  -0.00120,
,,,2.640000000000,  -0.00020,
,,,2.660000000000,  -0.00060,
,,,2.680000000000,  -0.00040,
,,,2.700000000000,  -0.00020,
,,,2.720000000000,  -0.00040,
,,,2.740000000000,  -0.00020,
,,,2.760000000000,  -0.00040,
,,,2.780000000000,  -0.00040,
,,,2.800000000000,  -0.00120,
,,,2.820000000000,  -0.00080,
,,,2.840000000000,   0.00020,
,,,2.860000000000,  -0.00060,
,,,2.880000000000,  -0.00100,
,,,2.900000000000,   0.00000,
,,,2.920000000000,  -0.00080,
,,,2.940000000000,   0.00000,
,,,2.960000000000,  -0.00060,
,,,2.980000000000,  -0.00060,
,,,3.000000000000,  -0.00020,
,,,3.020000000000,  -0.00120,
,,,3.040000000000,  -0.00020,
,,,3.060000000000,  -0.00080,
,,,3.080000000000,  -0.00060,
,,,3.100000000000,  -0.00020,
,,,3.120000000000,  -0.00040,
,,,3.140000000000,  -0.00140,
,,,3.160000000000,  -0.00040,
,,,3.180000000000,  -0.00100,
,,,3.200000000000,  -0.00100,
,,,3.220000000000,  -0.00040,
,,,3.240000000000,  -0.00040,
,,,3.260000000000,  -0.00060,
,,,3.280000000000,  -0.00060,
,,,3.300000000000,  -0.00060,
,,,3.320000000000,  -0.00040,
,,,3.340000000000,  -0.00080,
,,,3.360000000000,  -0.00060,
,,,3.380000000000,  -0.00060,
,,,3.400000000000,  -0.00040,
,,,3.420000000000,  -0.00020,
,,,3.440000000000,  -0.00020,
,,,3.460000000000,  -0.00020,
,,,3.480000000000,  -0.00060,
,,,3.500000000000,  -0.00040,
,,,3.520000000000,  -0.00060,
,,,3.540000000000,  -0.00080,
,,,3.560000000000,  -0.00040,
,,,3.580000000000,  -0.00040,
,,,3.600000000000,  -0.00080,
,,,3.620000000000,  -0.00020,
,,,3.640000000000,  -0.00060,
,,,3.660000000000,  -0.00020,
,,,3.680000000000,  -0.00140,
,,,3.700000000000,  -0.00080,
,,,3.720000000000,  -0.00120,
,,,3.740000000000,  -0.00040,
,,,3.760000000000,  -0.00040,
,,,3.780000000000,  -0.00060,
,,,3.800000000000,  -0.00080,
,,,3.820000000000,  -0.00060,
,,,3.840000000000,  -0.00100,
,,,3.860000000000,  -0.00020,
,,,3.880000000000,  -0.00020,
,,,3.900000000000,  -0.00040,
,,,3.920000000000,  -0.00040,
,,,3.940000000000,  -0.00100,
,,,3.960000000000,  -0.00140,
,,,3.980000000000,  -0.00040,
,,,4.000000000000,  -0.00040,
,,,4.020000000000,  -0.00120,
,,,4.040000000000,  -0.00120,
,,,4.060000000000,  -0.00060,
,,,4.080000000000,  -0.00080,
,,,4.100000000000,  -0.00040,
,,,4.120000000000,  -0.00040,
,,,4.140000000000,  -0.00020,
,,,4.160000000000,  -0.00060,
,,,4.180000000000,  -0.00060,
,,,4.200000000000,  -0.00120,
,,,4.220000000000,  -0.00040,
,,,4.240000000000,  -0.00060,
,,,4.260000000000,  -0.00060,
,,,4.280000000000,  -0.00060,
,,,4.300000000000,  -0.00020,
,,,4.320000000000,  -0.00040,
,,,4.340000000000,  -0.00120,
,,,4.360000000000,  -0.00120,
,,,4.380000000000,  -0.00060,
,,,4.400000000000,  -0.00120,
,,,4.420000000000,  -0.00120,
,,,4.440000000000,  -0.00100,
,,,4.460000000000,  -0.00060,
,,,4.480000000000,  -0.00060,
,,,4.500000000000,  -0.00040,
,,,4.520000000000,   0.00000,
,,,4.540000000000,  -0.00040,
,,,4.560000000000,  -0.00080,
,,,4.580000000000,  -0.00080,
,,,4.600000000000,  -0.00040,
,,,4.620000000000,  -0.00040,
,,,4.640000000000,  -0.00060,
,,,4.660000000000,  -0.00040,
,,,4.680000000000,  -0.00120,
,,,4.700000000000,  -0.00080,
,,,4.720000000000,  -0.00100,
,,,4.740000000000,  -0.00080,
,,,4.760000000000,  -0.00060,
,,,4.780000000000,  -0.00060,
,,,4.800000000000,  -0.00060,
,,,4.820000000000,  -0.00060,
,,,4.840000000000,  -0.00020,
,,,4.860000000000,  -0.00100,
,,,4.880000000000,  -0.00020,
,,,4.900000000000,  -0.00040,
,,,4.920000000000,  -0.00060,
,,,4.940000000000,  -0.00040,
,,,4.960000000000,  -0.00080,
,,,4.980000000000,  -0.00040,
,,,5.000000000000,  -0.00020,
,,,5.020000000000,  -0.00080,
,,,5.040000000000,  -0.00080,
,,,5.060000000000,  -0.00060,
,,,5.080000000000,  -0.00060,
,,,5.100000000000,  -0.00140,
,,,5.120000000000,  -0.00140,
,,,5.140000000000,  -0.00060,
,,,5.160000000000,  -0.00100,
,,,5.180000000000,  -0.00080,
,,,5.200000000000,   0.00000,
,,,5.220000000000,  -0.00040,
,,,5.240000000000,  -0.00020,
,,,5.260000000000,  -0.00040,
,,,5.280000000000,  -0.00120,
,,,5.300000000000,  -0.00040,
,,,5.320000000000,  -0.00060,
,,,5.340000000000,  -0.00060,
,,,5.360000000000,  -0.00060,
,,,5.380000000000,  -0.00020,
,,,5.400000000000,  -0.00080,
,,,5.420000000000,  -0.00040,
,,,5.440000000000,  -0.00140,
,,,5.460000000000,  -0.00040,
,,,5.480000000000,  -0.00060,
,,,5.500000000000,  -0.00040,
,,,5.520000000000,  -0.00020,
,,,5.540000000000,  -0.00040,
,,,5.560000000000,  -0.00060,
,,,5.580000000000,  -0.00080,
,,,5.600000000000,  -0.00120,
,,,5.620000000000,  -0.00040,
,,,5.640000000000,  -0.00100,
,,,5.660000000000,  -0.00060,
,,,5.680000000000,  -0.00040,
,,,5.700000000000,  -0.00140,
,,,5.720000000000,  -0.00020,
,,,5.740000000000,  -0.00060,
,,,5.760000000000,  -0.00060,
,,,5.780000000000,  -0.00040,
,,,5.800000000000,  -0.00080,
,,,5.820000000000,  -0.00080,
,,,5.840000000000,  -0.00060,
,,,5.860000000000,  -0.00040,
,,,5.880000000000,  -0.00100,
,,,5.900000000000,  -0.00100,
,,,5.920000000000,  -0.00080,
,,,5.940000000000,  -0.00100,
,,,5.960000000000,  -0.00060,
,,,5.980000000000,   0.00000,
,,,6.000000000000,  -0.00020,
,,,6.020000000000,  -0.00100,
,,,6.040000000000,  -0.00040,
,,,6.060000000000,  -0.00120,
,,,6.080000000000,  -0.00120,
,,,6.100000000000,   0.00060,
,,,6.120000000000,  -0.00120,
,,,6.140000000000,  -0.00120,
,,,6.160000000000,  -0.00080,
,,,6.180000000000,  -0.00020,
,,,6.200000000000,  -0.00080,
,,,6.220000000000,  -0.00040,
,,,6.240000000000,   0.00000,
,,,6.260000000000,  -0.00060,
,,,6.280000000000,  -0.00060,
,,,6.300000000000,  -0.00080,
,,,6.320000000000,  -0.00060,
,,,6.340000000000,  -0.00080,
,,,6.360000000000,   0.00000,
,,,6.380000000000,  -0.00020,
,,,6.400000000000,  -0.00140,
,,,6.420000000000,  -0.00020,
,,,6.440000000000,  -0.00060,
,,,6.460000000000,  -0.00060,
,,,6.480000000000,  -0.00080,
,,,6.500000000000,  -0.00040,
,,,6.520000000000,  -0.00060,
,,,6.540000000000,  -0.00060,
,,,6.560000000000,  -0.00040,
,,,6.580000000000,  -0.00060,
,,,6.600000000000,  -0.00040,
,,,6.620000000000,  -0.00020,
,,,6.640000000000,  -0.00100,
,,,6.660000000000,  -0.00040,
,,,6.680000000000,  -0.00080,
,,,6.700000000000,  -0.00040,
,,,6.720000000000,  -0.00040,
,,,6.740000000000,  -0.00060,
,,,6.760000000000,  -0.00100,
,,,6.780000000000,  -0.00060,
,,,6.800000000000,  -0.00160,
,,,6.820000000000,  -0.00060,
,,,6.840000000000,  -0.00020,
,,,6.860000000000,  -0.00060,
,,,6.880000000000,  -0.00040,
,,,6.900000000000,  -0.00060,
,,,6.920000000000,  -0.00080,
,,,6.940000000000,  -0.00060,
,,,6.960000000000,   0.00020,
,,,6.980000000000,  -0.00100,
,,,7.000000000000,  -0.00060,
,,,7.020000000000,  -0.00060,
,,,7.040000000000,  -0.00020,
,,,7.060000000000,  -0.00040,
,,,7.080000000000,  -0.00120,
,,,7.100000000000,  -0.00060,
,,,7.120000000000,   0.00000,
,,,7.140000000000,  -0.00080,
,,,7.160000000000,  -0.00040,
,,,7.180000000000,  -0.00020,
,,,7.200000000000,  -0.00060,
,,,7.220000000000,  -0.00020,
,,,7.240000000000,  -0.00100,
,,,7.260000000000,  -0.00040,
,,,7.280000000000,  -0.00120,
,,,7.300000000000,  -0.00060,
,,,7.320000000000,  -0.00040,
,,,7.340000000000,  -0.00100,
,,,7.360000000000,  -0.00060,
,,,7.380000000000,  -0.00060,
,,,7.400000000000,  -0.00060,
,,,7.420000000000,  -0.00100,
,,,7.440000000000,  -0.00040,
,,,7.460000000000,  -0.00040,
,,,7.480000000000,  -0.00060,
,,,7.500000000000,  -0.00040,
,,,7.520000000000,  -0.00040,
,,,7.540000000000,  -0.00020,
,,,7.560000000000,  -0.00060,
,,,7.580000000000,  -0.00040,
,,,7.600000000000,   0.00000,
,,,7.620000000000,  -0.00040,
,,,7.640000000000,  -0.00100,
,,,7.660000000000,  -0.00060,
,,,7.680000000000,  -0.00100,
,,,7.700000000000,  -0.00060,
,,,7.720000000000,  -0.00040,
,,,7.740000000000,  -0.00120,
,,,7.760000000000,  -0.00120,
,,,7.780000000000,  -0.00040,
,,,7.800000000000,  -0.00020,
,,,7.820000000000,  -0.00060,
,,,7.840000000000,  -0.00040,
,,,7.860000000000,  -0.00080,
,,,7.880000000000,  -0.00060,
,,,7.900000000000,  -0.00060,
,,,7.920000000000,  -0.00020,
,,,7.940000000000,  -0.00140,
,,,7.960000000000,  -0.00100,
,,,7.980000000000,  -0.00060,
,,,8.000000000000,  -0.00020,
,,,8.020000000000,  -0.00040,
,,,8.040000000000,  -0.00060,
,,,8.060000000000,  -0.00020,
,,,8.080000000000,  -0.00040,
,,,8.100000000000,  -0.00040,
,,,8.120000000000,  -0.00060,
,,,8.140000000000,  -0.00100,
,,,8.160000000000,  -0.00060,
,,,8.180000000000,  -0.00060,
,,,8.200000000000,  -0.00040,
,,,8.220000000000,  -0.00020,
,,,8.240000000000,  -0.00060,
,,,8.260000000000,  -0.00080,
,,,8.280000000000,  -0.00040,
,,,8.300000000000,  -0.00100,
,,,8.320000000000,  -0.00020,
,,,8.340000000000,  -0.00060,
,,,8.360000000000,  -0.00040,
,,,8.380000000000,  -0.00040,
,,,8.400000000000,  -0.00040,
,,,8.420000000000,  -0.00020,
,,,8.440000000000,  -0.00080,
,,,8.460000000000,  -0.00060,
,,,8.480000000000,  -0.00020,
,,,8.500000000000,  -0.00080,
,,,8.520000000000,  -0.00020,
,,,8.540000000000,  -0.00140,
,,,8.560000000000,  -0.00120,
,,,8.580000000000,  -0.00040,
,,,8.600000000000,  -0.00040,
,,,8.620000000000,  -0.00040,
,,,8.640000000000,  -0.00040,
,,,8.660000000000,  -0.00040,
,,,8.680000000000,  -0.00040,
,,,8.700000000000,  -0.00040,
,,,8.720000000000,  -0.00040,
,,,8.740000000000,  -0.00100,
,,,8.760000000000,  -0.00120,
,,,8.780000000000,  -0.00040,
,,,8.800000000000,  -0.00120,
,,,8.820000000000,  -0.00120,
,,,8.840000000000,  -0.00020,
,,,8.860000000000,  -0.00140,
,,,8.880000000000,  -0.00060,
,,,8.900000000000,  -0.00040,
,,,8.920000000000,  -0.00100,
,,,8.940000000000,  -0.00080,
,,,8.960000000000,  -0.00100,
,,,8.980000000000,  -0.00060,
,,,9.000000000000,  -0.00100,
,,,9.020000000000,  -0.00040,
,,,9.040000000000,  -0.00040,
,,,9.060000000000,  -0.00040,
,,,9.080000000000,  -0.00040,
,,,9.100000000000,  -0.00100,
,,,9.120000000000,  -0.00040,
,,,9.140000000000,  -0.00020,
,,,9.160000000000,  -0.00060,
,,,9.180000000000,   0.00000,
,,,9.200000000000,   0.00000,
,,,9.220000000000,  -0.00060,
,,,9.240000000000,  -0.00060,
,,,9.260000000000,  -0.00080,
,,,9.280000000000,  -0.00080,
,,,9.300000000000,  -0.00140,
,,,9.320000000000,  -0.00040,
,,,9.340000000000,  -0.00020,
,,,9.360000000000,   0.00020,
,,,9.380000000000,  -0.00140,
,,,9.400000000000,  -0.00060,
,,,9.420000000000,  -0.00100,
,,,9.440000000000,  -0.00080,
,,,9.460000000000,  -0.00040,
,,,9.480000000000,  -0.00040,
,,,9.500000000000,  -0.00020,
,,,9.520000000000,  -0.00040,
,,,9.540000000000,   0.00000,
,,,9.560000000000,  -0.00040,
,,,9.580000000000,  -0.00040,
,,,9.600000000000,  -0.00080,
,,,9.620000000000,  -0.00040,
,,,9.640000000000,  -0.00040,
,,,9.660000000000,  -0.00040,
,,,9.680000000000,   0.00000,
,,,9.700000000000,  -0.00080,
,,,9.720000000000,   0.00000,
,,,9.740000000000,  -0.00020,
,,,9.760000000000,   0.00020,
,,,9.780000000000,  -0.00060,
,,,9.800000000000,  -0.00040,
,,,9.820000000000,  -0.00020,
,,,9.840000000000,  -0.00040,
,,,9.860000000000,  -0.00060,
,,,9.880000000000,  -0.00040,
,,,9.900000000000,  -0.00100,
,,,9.920000000000,  -0.00060,
,,,9.940000000000,  -0.00020,
,,,9.960000000000,  -0.00120,
,,,9.980000000000,  -0.00060,
,,,10.000000000000,  -0.00040,
,,,10.020000000000,  -0.00040,
,,,10.040000000000,  -0.00020,
,,,10.060000000000,  -0.00080,
,,,10.080000000000,  -0.00060,
,,,10.100000000000,  -0.00020,
,,,10.120000000000,  -0.00020,
,,,10.140000000000,  -0.00060,
,,,10.160000000000,  -0.00040,
,,,10.180000000000,  -0.00060,
,,,10.200000000000,  -0.00040,
,,,10.220000000000,  -0.00060,
,,,10.240000000000,  -0.00080,
,,,10.260000000000,  -0.00080,
,,,10.280000000000,  -0.00080,
,,,10.300000000000,  -0.00040,
,,,10.320000000000,  -0.00080,
,,,10.340000000000,  -0.00060,
,,,10.360000000000,  -0.00100,
,,,10.380000000000,  -0.00020,
,,,10.400000000000,  -0.00100,
,,,10.420000000000,  -0.00060,
,,,10.440000000000,  -0.00040,
,,,10.460000000000,  -0.00060,
,,,10.480000000000,  -0.00100,
,,,10.500000000000,  -0.00060,
,,,10.520000000000,  -0.00040,
,,,10.540000000000,  -0.00020,
,,,10.560000000000,  -0.00040,
,,,10.580000000000,  -0.00060,
,,,10.600000000000,  -0.00060,
,,,10.620000000000,  -0.00060,
,,,10.640000000000,  -0.00060,
,,,10.660000000000,  -0.00040,
,,,10.680000000000,  -0.00020,
,,,10.700000000000,  -0.00020,
,,,10.720000000000,  -0.00020,
,,,10.740000000000,  -0.00080,
,,,10.760000000000,  -0.00060,
,,,10.780000000000,  -0.00040,
,,,10.800000000000,  -0.00120,
,,,10.820000000000,   0.00000,
,,,10.840000000000,  -0.00040,
,,,10.860000000000,  -0.00040,
,,,10.880000000000,  -0.00080,
,,,10.900000000000,  -0.00080,
,,,10.920000000000,  -0.00080,
,,,10.940000000000,  -0.00080,
,,,10.960000000000,  -0.00120,
,,,10.980000000000,  -0.00060,
,,,11.000000000000,  -0.00020,
,,,11.020000000000,  -0.00120,
,,,11.040000000000,  -0.00060,
,,,11.060000000000,  -0.00100,
,,,11.080000000000,  -0.00040,
,,,11.100000000000,  -0.00020,
,,,11.120000000000,  -0.00040,
,,,11.140000000000,  -0.00020,
,,,11.160000000000,  -0.00040,
,,,11.180000000000,  -0.00040,
,,,11.200000000000,  -0.00060,
,,,11.220000000000,  -0.00060,
,,,11.240000000000,  -0.00060,
,,,11.260000000000,  -0.00020,
,,,11.280000000000,  -0.00100,
,,,11.300000000000,  -0.00020,
,,,11.320000000000,  -0.00120,
,,,11.340000000000,  -0.00040,
,,,11.360000000000,  -0.00060,
,,,11.380000000000,  -0.00080,
,,,11.400000000000,  -0.00020,
,,,11.420000000000,  -0.00020,
,,,11.440000000000,  -0.00040,
,,,11.460000000000,  -0.00080,
,,,11.480000000000,  -0.00060,
,,,11.500000000000,  -0.00060,
,,,11.520000000000,  -0.00040,
,,,11.540000000000,  -0.00040,
,,,11.560000000000,  -0.00060,
,,,11.580000000000,  -0.00140,
,,,11.600000000000,  -0.00060,
,,,11.620000000000,  -0.00080,
,,,11.640000000000,  -0.00020,
,,,11.660000000000,   0.00000,
,,,11.680000000000,  -0.00040,
,,,11.700000000000,  -0.00140,
,,,11.720000000000,   0.00020,
,,,11.740000000000,  -0.00020,
,,,11.760000000000,  -0.00020,
,,,11.780000000000,  -0.00060,
,,,11.800000000000,  -0.00100,
,,,11.820000000000,  -0.00100,
,,,11.840000000000,   0.00000,
,,,11.860000000000,  -0.00060,
,,,11.880000000000,   0.00000,
,,,11.900000000000,  -0.00060,
,,,11.920000000000,  -0.00040,
,,,11.940000000000,  -0.00080,
,,,11.960000000000,  -0.00020,
,,,11.980000000000,  -0.00040,
,,,12.000000000000,  -0.00040,
,,,12.020000000000,  -0.00080,
,,,12.040000000000,  -0.00080,
,,,12.060000000000,  -0.00040,
,,,12.080000000000,  -0.00080,
,,,12.100000000000,  -0.00060,
,,,12.120000000000,  -0.00060,
,,,12.140000000000,  -0.00040,
,,,12.160000000000,  -0.00060,
,,,12.180000000000,  -0.00060,
,,,12.200000000000,  -0.00020,
,,,12.220000000000,  -0.00020,
,,,12.240000000000,  -0.00140,
,,,12.260000000000,  -0.00080,
,,,12.280000000000,  -0.00100,
,,,12.300000000000,  -0.00040,
,,,12.320000000000,  -0.00040,
,,,12.340000000000,  -0.00020,
,,,12.360000000000,  -0.00100,
,,,12.380000000000,  -0.00080,
,,,12.400000000000,  -0.00020,
,,,12.420000000000,  -0.00160,
,,,12.440000000000,  -0.00040,
,,,12.460000000000,  -0.00040,
,,,12.480000000000,  -0.00060,
,,,12.500000000000,  -0.00020,
,,,12.520000000000,  -0.00080,
,,,12.540000000000,  -0.00020,
,,,12.560000000000,  -0.00040,
,,,12.580000000000,  -0.00040,
,,,12.600000000000,  -0.00040,
,,,12.620000000000,  -0.00040,
,,,12.640000000000,  -0.00040,
,,,12.660000000000,  -0.00020,
,,,12.680000000000,  -0.00060,
,,,12.700000000000,  -0.00040,
,,,12.720000000000,  -0.00020,
,,,12.740000000000,  -0.00060,
,,,12.760000000000,  -0.00060,
,,,12.780000000000,   0.00000,
,,,12.800000000000,  -0.00100,
,,,12.820000000000,  -0.00020,
,,,12.840000000000,  -0.00060,
,,,12.860000000000,  -0.00040,
,,,12.880000000000,  -0.00020,
,,,12.900000000000,  -0.00040,
,,,12.920000000000,  -0.00040,
,,,12.940000000000,  -0.00040,
,,,12.960000000000,  -0.00020,
